meter,3/24/2013,4/4/2013,4/28/2013,5/6/2013
start,3/24/2013 0:00,4/4/2013 6:00,4/28/2013 12:00,5/6/2013 0:00
CR_01,48,48,48,48
CR_02,48,48,48,48
CR_03,48,48,48,48
CR_04,48,48,48,48
CR_05,48,48,48,48
CR_06,48,48,48,48
CR_07,48,48,48,48
CR_08,48,48,48,48
CR_09,48,48,48,48
CR_10,48,48,48,48
CR_12,48,48,48,48
CR_13,48,48,48,48
CR_14,48,48,48,48
CR_15,48,48,48,48
CR_16,48,48,48,48
CR_17,48,48,48,48
CR_18,48,48,48,48
CR_19,48,48,48,48
CR_20,48,48,48,48
CR_21,48,48,48,48
CR_22,48,48,48,48
CR_23,48,48,48,48
CR_24,48,48,48,48
CR_25,48,48,48,48
CR_26,48,48,48,48
CR_27,48,48,48,48
NE_01,48,48,48,48
NE_03,48,48,48,48
NE_04,48,48,48,48
NE_05,48,48,48,48
NE_06,48,48,48,48
NE_07,48,48,48,48
NE_08,48,48,48,48
NE_09,48,48,48,48
NE_10,48,48,48,48
NE_11,48,48,48,48
NE_12,48,48,48,48
NE_13,48,48,48,48
NE_14,48,48,48,48
NE_15,48,48,48,48
WN_01,48,48,48,48
WN_02,48,48,48,48
WN_03,48,48,48,48
WN_04,48,48,48,48
WN_05,48,48,48,48
WN_06,48,48,48,48
WN_07,48,48,48,48
WN_08,48,48,48,48
WN_09,48,48,48,48
WN_10,48,48,48,48
WN_11,48,48,48,48
WN_12,48,48,48,48
WN_13,48,48,48,48
WN_14,48,48,48,48
WN_15,48,48,48,48
WN_16,48,48,48,48
WN_17,48,48,48,48
WN_18,48,48,48,48
WN_19,48,48,48,48
GR_01,48,48,48,48
GR_02,48,48,48,48
GR_03,48,48,48,48
GR_04,48,48,48,48
SC_01,48,48,48,48
SC_02,48,48,48,48
SC_03,48,48,48,48
SC_04,48,48,48,48
SC_06,48,48,48,48
