dhr,CR_01,CR_02,CR_03,CR_04,CR_05,CR_06,CR_07,week,day
0.0,10.311198000000001,11.174598,13.487804,7.5113996,2.488404,1.3275983999999998,1.7910049999999997,9.8,3.4
0.08333333333333333,10.392199999999999,11.247,12.948792000000001,7.489196,2.4313976,1.3275983999999998,1.7910049999999997,9.8,3.4
0.16666666666666666,10.392199999999999,11.247,13.211397999999999,7.4595974,2.4165978000000004,1.3275983999999998,1.7910049999999997,9.8,3.4
0.25,10.2952,11.025000000000002,12.918198,7.690996799999999,2.1574026,1.2238060000000002,1.7223942,10.2,2.6
0.3333333333333333,10.260195999999999,10.597202,13.646606,7.703600800000001,2.1818020000000002,1.2238060000000002,1.7223942,10.2,2.6
0.4166666666666667,10.260195999999999,10.597202,13.789391999999998,7.747999,2.0536011999999997,1.2238060000000002,1.7223942,10.2,2.6
0.5,10.395798000000001,10.6128,12.811599999999999,7.729004399999999,2.2349968000000002,1.2223952,1.6416002000000003,9.8,3.4
0.5833333333333334,10.0007974,10.591604,13.545599999999999,7.4879999999999995,2.1523994,1.2223952,1.6416002000000003,9.8,3.4
0.6666666666666666,10.0007974,10.591604,13.642401999999999,7.2050032,2.1456024,1.2223952,1.6416002000000003,9.8,3.4
0.75,10.1848,10.728602,13.6642,7.6290008,2.281399,1.2204008,1.4998002,9.8,3.2
0.8333333333333334,10.1501988,10.634593800000001,12.993196000000001,7.859597199999999,2.2009974,1.2204008,1.4998002,9.8,3.2
0.9166666666666666,10.1501988,10.634593800000001,13.006798,7.1689952,2.2369963999999998,1.2204008,1.4998002,9.8,3.2
1.0,9.757397399999999,10.1307978,11.958601999999999,7.235798,1.9037992,1.047596,1.2601973999999998,10.0,2.8
1.0833333333333333,9.627996199999998,10.0350002,12.187800600000001,7.4444006,1.8857996,1.047596,1.2601973999999998,10.0,2.8
1.1666666666666667,9.627996199999998,10.0350002,13.115598,7.2233998,1.7663954,1.047596,1.2601973999999998,10.0,2.8
1.25,9.880996333333334,10.224332500000001,12.746998333333332,7.2613294999999995,1.9658356666666668,1.0418373333333333,1.3724964999999998,9.833333333333334,3.3333333333333335
1.3333333333333333,9.643835000000001,10.3045015,12.598003333333333,7.514332,1.9011623333333334,1.0418373333333333,1.3724964999999998,9.833333333333334,3.3333333333333335
1.4166666666666667,9.643835000000001,10.3045015,12.206995,7.355332333333334,1.838832166666667,1.0418373333333333,1.3724964999999998,9.833333333333334,3.3333333333333335
1.5,9.3134014,10.150203,12.299202,7.4459935999999995,1.6305984000000002,0.9439911999999999,1.2081988,10.0,3.2
1.5833333333333335,9.225198,9.9650022,12.103795999999999,7.4233928,1.6415954,0.9439911999999999,1.2081988,10.0,3.2
1.6666666666666665,9.225198,9.9650022,12.542396,7.155004000000001,1.6012005999999999,0.9439911999999999,1.2081988,10.0,3.2
1.75,9.692603799999999,10.3264018,12.004597999999998,7.1633984,1.6147947999999999,0.9622004000000001,1.293795,9.8,3.0
1.8333333333333335,9.284195,10.2469972,11.8023988,6.950797199999999,1.5808002,0.9622004000000001,1.293795,9.8,3.0
1.9166666666666665,9.284195,10.2469972,12.354006000000002,7.591002400000001,1.5580029999999998,0.9622004000000001,1.293795,9.8,3.0
2.0,9.51949775,10.379497,11.6992525,7.47974875,1.50649925,0.931498,1.209746,9.75,3.5
2.0833333333333335,9.28550075,9.915499,11.961005000000002,7.43574875,1.495247,0.931498,1.209746,9.75,3.5
2.1666666666666665,9.28550075,9.915499,11.556495,7.1307505,1.468502,0.931498,1.209746,9.75,3.5
2.25,8.823596,9.4417986,10.819202,6.4787992,1.3762008000000001,0.8721984,1.1219996,9.8,3.4
2.3333333333333335,8.728198599999999,9.1795948,10.2015994,6.593602200000001,1.353399,0.8721984,1.1219996,9.8,3.4
2.4166666666666665,8.728198599999999,9.1795948,11.126404,6.7859994,1.3220018000000002,0.8721984,1.1219996,9.8,3.4
2.5,8.728198599999999,9.1795948,11.003195999999999,6.773600999999999,1.3405992,0.8368023999999998,1.0840011999999999,9.8,3.4
2.5833333333333335,8.540398399999999,8.9302004,10.249401,6.4950003999999995,1.3542024000000001,0.8368023999999998,1.0840011999999999,9.8,3.4
2.6666666666666665,8.540398399999999,8.9302004,10.361998,6.461206399999999,1.286601,0.8368023999999998,1.0840011999999999,9.8,3.4
2.75,8.534998,9.1096018,10.5642,6.508603799999999,1.3038014,0.7923948000000001,1.0387994,10.0,3.0
2.8333333333333335,8.2791986,8.977601799999999,10.3731994,6.4584036,1.2268008,0.7923948000000001,1.0387994,10.0,3.0
2.9166666666666665,8.2791986,8.977601799999999,10.602604,6.648801199999999,1.2447958,0.7923948000000001,1.0387994,10.0,3.0
3.0,8.2791986,8.977601799999999,10.1649992,6.24,1.1931938,0.7882043999999999,1.0313996,10.0,3.0
3.0833333333333335,8.0807988,8.665992400000002,9.8237988,6.560401599999999,1.1923994,0.7882043999999999,1.0313996,10.0,3.0
3.1666666666666665,8.0807988,8.665992400000002,10.1199984,6.422596399999999,1.1798002,0.7882043999999999,1.0313996,10.0,3.0
3.25,7.5987994,8.432392400000001,9.971,5.989802,1.0727942,0.7034018,0.9363993999999998,10.2,2.6
3.3333333333333335,7.405407199999999,8.227999,9.4957922,6.1333956,1.0865985999999999,0.7034018,0.9363993999999998,10.2,2.6
3.4166666666666665,7.405407199999999,8.227999,10.2045996,6.089399200000001,1.066997,0.7034018,0.9363993999999998,10.2,2.6
3.5,7.665673833333334,8.426834166666666,9.503330499999999,5.942501166666667,1.0993321666666664,0.7051676666666667,0.9168348333333333,10.166666666666666,2.6666666666666665
3.5833333333333335,7.363998166666666,7.831163166666666,9.722168833333335,5.9208295,1.0989976666666668,0.7051676666666667,0.9168348333333333,10.166666666666666,2.6666666666666665
3.6666666666666665,7.363998166666666,7.831163166666666,9.360163166666664,5.9853315,1.071498,0.7051676666666667,0.9168348333333333,10.166666666666666,2.6666666666666665
3.75,7.717500749999999,7.93474475,9.9922455,5.933997,1.0847475,0.7509957500000001,0.9752470000000001,10.0,2.75
3.8333333333333335,7.445249499999999,7.838505,9.6017455,5.637751499999999,1.0797435,0.7509957500000001,0.9752470000000001,10.0,2.75
3.9166666666666665,7.445249499999999,7.838505,9.37900225,6.05974325,1.07124675,0.7509957500000001,0.9752470000000001,10.0,2.75
4.0,7.0666665,7.726505,9.862998833333334,5.2048274999999995,1.0401638333333334,0.7218336666666666,0.9203348333333334,10.166666666666666,2.6666666666666665
4.083333333333333,6.853668166666666,7.688167666666668,8.989835333333334,5.708667666666667,0.9904973333333335,0.7218336666666666,0.9203348333333334,10.166666666666666,2.6666666666666665
4.166666666666667,6.853668166666666,7.688167666666668,9.182832166666666,5.434503,0.9884961666666667,0.7218336666666666,0.9203348333333334,10.166666666666666,2.6666666666666665
4.25,7.0322032,7.8333994,9.1864012,5.427597199999999,1.0167966,0.7028042,0.9520021999999999,10.0,3.0
4.333333333333333,6.789003199999999,7.6819996,8.855596,5.267597,1.1128012,0.7028042,0.9520021999999999,10.0,3.0
4.416666666666667,6.789003199999999,7.6819996,8.8300006,5.2326026,1.088598,0.7028042,0.9520021999999999,10.0,3.0
4.5,6.696167499999999,7.570001166666667,9.1073365,5.220002,1.1073288333333335,0.7098355000000001,0.8921691666666667,10.0,2.6666666666666665
4.583333333333333,6.3829995,7.472003999999999,8.887664833333334,5.204998666666667,1.0678305000000001,0.7098355000000001,0.8921691666666667,10.0,2.6666666666666665
4.666666666666667,6.3829995,7.472003999999999,9.146670666666667,5.107164833333334,1.0721635,0.7098355000000001,0.8921691666666667,10.0,2.6666666666666665
4.75,6.258195799999999,7.314401200000001,8.3256012,4.8816024,1.017997,0.7140015999999999,0.925398,10.2,2.8
4.833333333333333,6.1400011999999995,7.0314043999999996,8.167399999999999,4.5424024,1.0193942,0.7140015999999999,0.925398,10.2,2.8
4.916666666666667,6.1400011999999995,7.0314043999999996,8.7783942,4.4943976,1.0327964,0.7140015999999999,0.925398,10.2,2.8
5.0,5.805500749999999,6.9690045000000005,8.1227505,4.6979915,0.9672525000000001,0.771749,0.898003,10.25,3.0
5.083333333333333,5.5927475,6.812251,8.693003249999999,4.18850225,1.00224825,0.771749,0.898003,10.25,3.0
5.166666666666667,5.5927475,6.812251,8.579994000000001,4.2795035,0.9967475000000001,0.771749,0.898003,10.25,3.0
5.25,5.888502,7.17875025,8.5267505,4.489243999999999,1.07324975,0.79249675,0.8930045,10.25,3.25
5.333333333333333,5.674003,7.0567475,8.0267505,4.2375065,1.041495,0.79249675,0.8930045,10.25,3.25
5.416666666666667,5.674003,7.0567475,8.213244,4.4367475,1.0687475,0.79249675,0.8930045,10.25,3.25
5.5,5.826666666666667,7.065163833333333,8.394997666666665,4.218001,1.0829975,0.7595014999999999,0.9203348333333334,9.833333333333334,3.3333333333333335
5.583333333333333,5.7503338333333325,6.8699951666666665,8.084336833333333,4.064662166666667,1.117668,0.7595014999999999,0.9203348333333334,9.833333333333334,3.3333333333333335
5.666666666666667,5.7503338333333325,6.8699951666666665,8.644831166666668,4.0678345,1.077999,0.7595014999999999,0.9203348333333334,9.833333333333334,3.3333333333333335
5.75,5.7503338333333325,6.8699951666666665,8.386663,4.065339166666667,1.0724983333333333,0.8251638333333333,0.9941645000000001,9.833333333333334,3.3333333333333335
5.833333333333333,5.6898335,6.733500833333334,8.065498833333335,3.849335166666666,1.150836,0.8251638333333333,0.9941645000000001,9.833333333333334,3.3333333333333335
5.916666666666667,5.6898335,6.733500833333334,8.178327833333332,3.8046636666666664,1.1375026666666668,0.8251638333333333,0.9941645000000001,9.833333333333334,3.3333333333333335
6.0,5.7550014,6.910000800000001,8.0593988,3.8368002,1.160801,0.9363949999999999,1.0829967999999999,9.8,3.8
6.083333333333333,5.5017998,6.9149946,8.0604028,3.782007599999999,1.190998,0.9363949999999999,1.0829967999999999,9.8,3.8
6.166666666666667,5.5017998,6.9149946,8.152399399999998,3.7088,1.1985986,0.9363949999999999,1.0829967999999999,9.8,3.8
6.25,5.447334333333334,6.764161666666666,8.392829333333333,3.662501166666667,1.2269978333333333,0.9920038333333333,1.0249968333333332,9.833333333333334,3.3333333333333335
6.333333333333333,5.318166499999999,6.605169833333332,8.361499,3.586335833333333,1.2904955,0.9920038333333333,1.0249968333333332,9.833333333333334,3.3333333333333335
6.416666666666667,5.318166499999999,6.605169833333332,8.033502666666665,3.475328666666666,1.369499,0.9920038333333333,1.0249968333333332,9.833333333333334,3.3333333333333335
6.5,5.318166499999999,6.605169833333332,8.344661833333333,3.7283310000000003,1.4271649999999998,1.0568331666666666,1.0801635,9.833333333333334,3.3333333333333335
6.583333333333333,5.292496333333333,6.617670166666666,7.723328499999998,3.4188263333333335,1.5039999999999998,1.0568331666666666,1.0801635,9.833333333333334,3.3333333333333335
6.666666666666667,5.292496333333333,6.617670166666666,7.741496666666667,3.427830666666667,1.5773353333333333,1.0568331666666666,1.0801635,9.833333333333334,3.3333333333333335
6.75,5.292496333333333,6.617670166666666,7.709660500000001,3.3801615,1.597497,1.1610004999999999,1.2698318333333334,9.833333333333334,3.3333333333333335
6.833333333333333,5.248,6.603670999999999,7.785665999999999,3.325668,1.7109918333333332,1.1610004999999999,1.2698318333333334,9.833333333333334,3.3333333333333335
6.916666666666667,5.248,6.603670999999999,8.168171166666665,3.3061645,1.7796671666666668,1.1610004999999999,1.2698318333333334,9.833333333333334,3.3333333333333335
7.0,5.248,6.603670999999999,7.958166333333334,3.264833,1.8049946666666665,1.2993284999999999,1.4828301666666668,9.833333333333334,3.3333333333333335
7.083333333333333,5.250499333333333,6.567330500000001,8.115172833333334,3.322663,1.8838383333333333,1.2993284999999999,1.4828301666666668,9.833333333333334,3.3333333333333335
7.166666666666667,5.250499333333333,6.567330500000001,8.205165833333334,3.4108303333333336,1.9766656666666667,1.2993284999999999,1.4828301666666668,9.833333333333334,3.3333333333333335
7.25,5.250499333333333,6.567330500000001,8.9659955,3.3390015,2.0798288333333335,1.4349939999999999,1.8281694999999998,9.833333333333334,3.3333333333333335
7.333333333333333,5.3649985,6.6848313333333325,8.656665833333333,3.2453331666666667,2.152003666666667,1.4349939999999999,1.8281694999999998,9.833333333333334,3.3333333333333335
7.416666666666667,5.3649985,6.6848313333333325,9.002336166666666,3.1098393333333334,2.3110033333333333,1.4349939999999999,1.8281694999999998,9.833333333333334,3.3333333333333335
7.5,5.275599399999999,6.5491996,8.2816046,3.1455954,2.3129974000000004,1.6413990000000003,2.3071956000000005,10.0,3.0
7.583333333333333,5.3777986,6.5967976,8.1200024,3.2888012000000004,2.3161974,1.6413990000000003,2.3071956000000005,10.0,3.0
7.666666666666667,5.3777986,6.5967976,8.6285968,3.1830004,2.466602,1.6413990000000003,2.3071956000000005,10.0,3.0
7.75,5.3777986,6.5967976,8.4613982,3.2179946,2.494795,1.7297984,2.4469956,10.0,3.0
7.833333333333333,5.574199,6.668202199999999,9.174997999999999,3.3663955999999997,2.6140030000000003,1.7297984,2.4469956,10.0,3.0
7.916666666666667,5.574199,6.668202199999999,9.1534016,3.2425995999999997,2.5933922000000003,1.7297984,2.4469956,10.0,3.0
8.0,5.7166011999999995,6.7424046,9.3759956,3.6420018,2.6153951999999996,1.7926069999999998,2.8461922,10.2,2.4
8.083333333333334,6.151596,7.0365991999999995,9.7870004,3.7875994,2.7343977999999995,1.7926069999999998,2.8461922,10.2,2.4
8.166666666666666,6.151596,7.0365991999999995,9.699995,3.7853989999999995,2.7179961999999995,1.7926069999999998,2.8461922,10.2,2.4
8.25,6.1934949999999995,7.08924975,9.965249750000002,4.18749775,2.8794922499999998,1.761997,2.911749,10.25,1.75
8.333333333333334,6.47149775,7.14325275,11.14375025,4.490003,2.83549775,1.761997,2.911749,10.25,1.75
8.416666666666666,6.47149775,7.14325275,9.887493,4.4292555,2.69174325,1.761997,2.911749,10.25,1.75
8.5,6.320665666666667,7.190501333333334,10.540663,4.284333,2.933166,1.798832,3.160502166666667,10.166666666666666,2.6666666666666665
8.583333333333334,6.743501833333333,7.527163166666667,10.6396685,4.4293295,2.9713323333333332,1.798832,3.160502166666667,10.166666666666666,2.6666666666666665
8.666666666666666,6.743501833333333,7.527163166666667,10.622163166666667,4.766002833333332,2.9014969999999995,1.798832,3.160502166666667,10.166666666666666,2.6666666666666665
8.75,6.783000400000001,7.5539950000000005,10.773004,4.6469978,2.983596,1.7885991999999997,3.198197,10.2,2.2
8.833333333333334,7.3402022,7.7903976,11.2422038,5.0003994,2.9760002,1.7885991999999997,3.198197,10.2,2.2
8.916666666666666,7.3402022,7.7903976,10.7513982,5.1871998,2.8627949999999998,1.7885991999999997,3.198197,10.2,2.2
9.0,7.1387505,7.601997,10.6605025,4.88150075,2.9687475000000005,1.78425125,3.2174952500000003,10.0,2.5
9.083333333333334,7.35175475,8.071503499999999,11.3412475,4.631749,2.9900029999999997,1.78425125,3.2174952500000003,10.0,2.5
9.166666666666666,7.35175475,8.071503499999999,11.0127475,5.2772495,3.0222482499999996,1.78425125,3.2174952500000003,10.0,2.5
9.25,7.684005749999999,8.252251,11.22724,5.4524965,2.8689985,1.78025125,2.9329985,10.25,1.75
9.333333333333334,8.1169985,8.671999999999999,11.179755,5.88699575,2.8744994999999998,1.78025125,2.9329985,10.25,1.75
9.416666666666666,8.1169985,8.671999999999999,12.593497499999998,5.95350075,2.82875325,1.78025125,2.9329985,10.25,1.75
9.5,8.0681952,8.5281964,12.458601999999999,5.7041986,2.8880024,1.7785971999999997,2.8679989999999997,10.2,2.8
9.583333333333334,8.4285994,8.8177986,11.345998599999998,5.7639988,2.8017985999999997,1.7785971999999997,2.8679989999999997,10.2,2.8
9.666666666666666,8.4285994,8.8177986,13.052604000000002,5.8117980000000005,2.7501970000000004,1.7785971999999997,2.8679989999999997,10.2,2.8
9.75,8.380245500000001,8.8870015,12.569495,5.72550075,2.7672470000000002,1.8044965,2.8932494999999996,10.25,3.0
9.833333333333334,8.7887475,9.4307505,12.603755,6.037751749999999,2.83424825,1.8044965,2.8932494999999996,10.25,3.0
9.916666666666666,8.7887475,9.4307505,12.8872525,6.070995750000001,2.7442512499999996,1.8044965,2.8932494999999996,10.25,3.0
10.0,8.954800600000002,9.4295968,12.512201999999998,6.5699972,2.8655976,1.7861934000000002,2.6358002,10.0,2.6
10.083333333333334,9.220400399999999,9.6353966,13.339001999999999,6.383603,2.8161962000000003,1.7861934000000002,2.6358002,10.0,2.6
10.166666666666666,9.220400399999999,9.6353966,13.048995999999999,6.404195000000001,2.7844018,1.7861934000000002,2.6358002,10.0,2.6
10.25,9.120334666666666,9.755998666666667,12.983326666666665,6.113339,2.974995666666667,1.7566676666666667,2.7743299999999995,9.666666666666666,4.0
10.333333333333334,9.599330333333334,10.191329999999999,13.087003333333334,6.351338000000001,3.0880000000000005,1.7566676666666667,2.7743299999999995,9.666666666666666,4.0
10.416666666666666,9.599330333333334,10.191329999999999,13.116666666666667,6.055326333333333,2.9436650000000006,1.7566676666666667,2.7743299999999995,9.666666666666666,4.0
10.5,9.4305964,10.250800799999999,13.505798000000002,6.3142072,2.9262014,1.7846004,2.6904012,9.8,3.6
10.583333333333334,9.704394800000001,10.3223942,12.914004,6.317398,2.8182004,1.7846004,2.6904012,9.8,3.6
10.666666666666666,9.704394800000001,10.3223942,13.620998,6.3737974,2.8409976,1.7846004,2.6904012,9.8,3.6
10.75,9.74799425,10.430742749999999,13.818997499999998,6.3802509999999995,2.90174575,1.8365019999999999,2.70650525,10.0,3.25
10.833333333333334,10.031749,10.8035,13.7049925,6.58399425,2.9640000000000004,1.8365019999999999,2.70650525,10.0,3.25
10.916666666666666,10.031749,10.8035,13.9404975,6.6092495,2.9304992499999996,1.8365019999999999,2.70650525,10.0,3.25
11.0,9.918832166666666,10.748665,13.232995,6.552833333333333,2.952163666666667,1.813497,2.7365021666666665,10.0,3.3333333333333335
11.083333333333334,10.107834666666665,10.894169499999999,13.842506666666665,6.448996666666666,2.908831166666667,1.813497,2.7365021666666665,10.0,3.3333333333333335
11.166666666666666,10.107834666666665,10.894169499999999,13.656496666666667,6.882000833333334,2.912837,1.813497,2.7365021666666665,10.0,3.3333333333333335
11.25,9.9847996,10.450199399999999,13.6126,6.492599199999999,2.8198026,1.7449953999999999,2.7631976,10.2,2.6
11.333333333333334,10.2667992,10.682991999999999,13.357800000000001,6.7448011999999995,2.8944024,1.7449953999999999,2.7631976,10.2,2.6
11.416666666666666,10.2667992,10.682991999999999,13.324596,6.6718036,2.9241928,1.7449953999999999,2.7631976,10.2,2.6
11.5,10.3951952,10.721994,14.026596000000001,6.595405600000001,2.9413981999999996,1.8550001999999999,2.8278002,10.0,3.2
11.583333333333334,10.2555938,10.9024,13.6066,6.635398599999999,2.9611959999999997,1.8550001999999999,2.8278002,10.0,3.2
11.666666666666666,10.2555938,10.9024,13.6334,7.1736011999999985,3.0220006,1.8550001999999999,2.8278002,10.0,3.2
11.75,10.354994999999999,11.3380025,13.9717475,6.472753249999999,3.0497405,1.9260027499999999,2.74699575,9.75,3.5
11.833333333333334,10.372005999999999,11.363245,13.730492499999999,6.881746,2.9747445,1.9260027499999999,2.74699575,9.75,3.5
11.916666666666666,10.372005999999999,11.363245,13.422994999999998,7.005249749999999,2.9927530000000004,1.9260027499999999,2.74699575,9.75,3.5
12.0,10.244205,11.326596,14.372598000000002,6.9860016,3.0427983999999997,1.8286016,2.6781946000000003,10.2,3.0
12.083333333333334,10.3434002,11.249206,13.827994,7.048002200000001,2.9101968,1.8286016,2.6781946000000003,10.2,3.0
12.166666666666666,10.3434002,11.249206,14.213798,7.0101958,2.936395,1.8286016,2.6781946000000003,10.2,3.0
12.25,10.2750002,11.029606,13.830200000000001,6.661003199999999,2.9841988,1.8062014000000002,2.6833988,10.2,2.6
12.333333333333334,10.1754008,11.314802,14.196200000000001,7.164393800000001,3.0063932,1.8062014000000002,2.6833988,10.2,2.6
12.416666666666666,10.1754008,11.314802,13.012196,7.2408014000000005,3.0221967999999997,1.8062014000000002,2.6833988,10.2,2.6
12.5,10.3374068,11.3696,13.6848,7.1423952,2.9721973999999998,1.8438026,2.6192070000000003,10.0,3.2
12.583333333333334,10.5811982,11.317993999999999,13.595002,7.258599599999999,2.9005972,1.8438026,2.6192070000000003,10.0,3.2
12.666666666666666,10.5811982,11.317993999999999,12.668398,7.251798199999999,2.9956018,1.8438026,2.6192070000000003,10.0,3.2
12.75,10.536398199999999,11.098393999999999,13.734200000000001,7.4103966,2.9449954000000007,1.7900003999999998,2.722999,10.0,2.8
12.833333333333334,10.319401,11.599402,14.227395999999999,7.9632024,2.9313963999999997,1.7900003999999998,2.722999,10.0,2.8
12.916666666666666,10.319401,11.599402,13.391798,7.6393952,2.9467935999999995,1.7900003999999998,2.722999,10.0,2.8
13.0,10.4242028,11.470794,13.352799999999998,7.4126015999999995,2.9457986,1.7454011999999999,2.6286016,10.0,3.0
13.083333333333334,10.546597799999999,11.233201999999997,13.347401999999999,7.5084052,3.0313998,1.7454011999999999,2.6286016,10.0,3.0
13.166666666666666,10.546597799999999,11.233201999999997,13.215800000000002,7.252797799999999,2.9053992,1.7454011999999999,2.6286016,10.0,3.0
13.25,10.752196199999997,11.485800000000001,13.9678,8.164994,2.9245992000000003,1.8431954000000002,2.5918038,10.0,2.8
13.333333333333334,10.898404,11.459799999999998,13.785597999999998,7.613000799999999,2.9480036000000003,1.8431954000000002,2.5918038,10.0,2.8
13.416666666666666,10.898404,11.459799999999998,13.418602000000002,7.8387996,2.9053992,1.8431954000000002,2.5918038,10.0,2.8
13.5,10.733003333333334,11.323999999999998,13.90334,7.240338666666666,3.030330333333333,1.7063396666666666,2.5929966666666666,10.0,3.3333333333333335
13.583333333333334,10.925326666666669,11.658333333333333,13.617676666666666,7.889673999999999,2.8836746666666664,1.7063396666666666,2.5929966666666666,10.0,3.3333333333333335
13.666666666666666,10.925326666666669,11.658333333333333,13.430663333333333,8.079665666666665,2.8093353333333333,1.7063396666666666,2.5929966666666666,10.0,3.3333333333333335
13.75,10.914393999999998,11.6116,13.374200000000002,7.954396599999998,2.9718004000000002,1.7568046,2.6753915999999998,10.0,3.6
13.833333333333334,11.025802,11.817794,13.587198,8.2246026,3.0711966000000004,1.7568046,2.6753915999999998,10.0,3.6
13.916666666666666,11.025802,11.817794,14.209996,8.3033974,3.052202,1.7568046,2.6753915999999998,10.0,3.6
14.0,11.125802,11.801594,13.315402,7.9366026000000005,2.9384034,1.8169976,2.6268027999999997,10.0,2.8
14.083333333333334,10.961397999999999,11.559794,13.524194,8.1235948,2.9050021999999998,1.8169976,2.6268027999999997,10.0,2.8
14.166666666666666,10.961397999999999,11.559794,13.668197999999999,8.202595200000001,2.9436030000000004,1.8169976,2.6268027999999997,10.0,2.8
14.25,11.053393999999999,11.563994,13.456799999999998,7.9452028,3.0301991999999998,1.7496009999999997,2.5281963999999997,10.0,3.2
14.333333333333334,10.862196,11.782399999999999,13.351194000000001,8.6710002,3.0729947999999996,1.7496009999999997,2.5281963999999997,10.0,3.2
14.416666666666666,10.862196,11.782399999999999,13.790996000000002,8.550199000000001,2.9661991999999997,1.7496009999999997,2.5281963999999997,10.0,3.2
14.5,10.862196,11.782399999999999,13.199402000000001,7.9695978,2.9208011999999997,1.6469959999999997,2.4719932,10.0,3.2
14.583333333333334,11.127996,11.312196,13.395,8.0265998,2.9875994,1.6469959999999997,2.4719932,10.0,3.2
14.666666666666666,11.127996,11.312196,14.124796,7.862399999999999,2.8537972,1.6469959999999997,2.4719932,10.0,3.2
14.75,10.953598000000001,11.312196,13.382997999999997,8.2081964,2.8632058000000002,1.6554042,2.4849986,10.2,2.6
14.833333333333334,10.927594,11.548598,13.521804,8.2304,2.9265986,1.6554042,2.4849986,10.2,2.6
14.916666666666666,10.927594,11.548598,13.1286,7.836001,2.9019984000000005,1.6554042,2.4849986,10.2,2.6
15.0,10.697244999999999,11.644,13.9369925,7.546745000000001,2.8902425,1.75199975,2.59724975,10.25,2.75
15.083333333333334,10.941994999999999,11.759755,12.812505,8.42624825,2.8447475000000004,1.75199975,2.59724975,10.25,2.75
15.166666666666666,10.941994999999999,11.759755,13.468245,8.09324975,2.89025375,1.75199975,2.59724975,10.25,2.75
15.25,11.066793999999998,11.878204,13.932991999999999,8.0175978,2.9479988,1.7511990000000002,2.4029993999999997,10.0,2.6
15.333333333333334,11.074997999999999,11.552198,13.541394,7.9981968000000006,2.8077971999999995,1.7511990000000002,2.4029993999999997,10.0,2.6
15.416666666666666,11.074997999999999,11.552198,13.474198000000001,8.2159978,2.8195926,1.7511990000000002,2.4029993999999997,10.0,2.6
15.5,11.024663333333335,11.493501666666665,12.617996666666668,8.054341500000001,2.8571641666666667,1.7326676666666667,2.4396613333333335,10.166666666666666,2.6666666666666665
15.583333333333334,10.651666666666666,11.41433,12.957003333333333,7.699499833333334,2.848996833333333,1.7326676666666667,2.4396613333333335,10.166666666666666,2.6666666666666665
15.666666666666666,10.651666666666666,11.41433,13.2875,7.706164333333333,2.8489928333333334,1.7326676666666667,2.4396613333333335,10.166666666666666,2.6666666666666665
15.75,10.893994999999999,11.634745,13.1685025,7.73549775,2.9549955,1.7357489999999998,2.5289927500000005,10.0,3.0
15.833333333333334,10.913,11.1670025,13.3747475,8.14500425,2.7444965000000003,1.7357489999999998,2.5289927500000005,10.0,3.0
15.916666666666666,10.913,11.1670025,12.96451,8.127749,2.81225125,1.7357489999999998,2.5289927500000005,10.0,3.0
16.0,10.7825,11.3257525,13.4017525,7.608006,2.92150075,1.6414947500000001,2.4049985,10.25,3.0
16.083333333333332,10.7944925,11.4895025,13.109755,7.9655065,2.8267447500000005,1.6414947500000001,2.4049985,10.25,3.0
16.166666666666668,10.7944925,11.4895025,13.204005,7.9359945000000005,2.8294947500000003,1.6414947500000001,2.4049985,10.25,3.0
16.25,10.831994,11.634402,13.169999999999998,7.9271942,2.7659962000000005,1.617397,2.3305998000000003,10.2,2.4
16.333333333333332,10.689798,11.1496,13.0534,7.661996,2.5819984,1.617397,2.3305998000000003,10.2,2.4
16.416666666666668,10.689798,11.1496,13.684196,7.612398200000001,2.6045992,1.617397,2.3305998000000003,10.2,2.4
16.5,10.617,11.367505,12.734997499999999,7.574498999999999,2.6264995,1.58449625,2.4402454999999996,10.25,3.25
16.583333333333332,10.508245,11.557500000000001,13.3940025,7.935748749999999,2.75549775,1.58449625,2.4402454999999996,10.25,3.25
16.666666666666668,10.508245,11.557500000000001,13.055505,7.87499575,2.7812497499999997,1.58449625,2.4402454999999996,10.25,3.25
16.75,10.85399,11.3819975,12.7315,7.458003,2.8144992500000003,1.65375175,2.30875325,9.75,3.5
16.833333333333332,10.8747425,11.3112475,12.417494999999999,7.39449925,2.82799425,1.65375175,2.30875325,9.75,3.5
16.916666666666668,10.8747425,11.3112475,13.5155,7.3837487500000005,2.9012555000000004,1.65375175,2.30875325,9.75,3.5
17.0,10.632996,11.350602,13.491996,7.542998200000001,2.7192012,1.6002008,2.2629978,10.0,3.0
17.083333333333332,10.345003,10.9662006,13.577601999999999,7.301400200000001,2.7943988000000006,1.6002008,2.2629978,10.0,3.0
17.166666666666668,10.345003,10.9662006,13.640796,7.1003984,2.7529999999999992,1.6002008,2.2629978,10.0,3.0
17.25,10.2010022,11.103398,13.5638,7.4195948000000005,2.6719997999999996,1.6214002,2.211401,10.2,3.0
17.333333333333332,10.4103968,10.869795999999997,14.0562,7.3497974,2.8022004,1.6214002,2.211401,10.2,3.0
17.416666666666668,10.4103968,10.869795999999997,13.536804,7.5083962,2.7608012000000004,1.6214002,2.211401,10.2,3.0
17.5,10.341199,11.032796000000001,13.617998,7.2195972,2.908599,1.6238016000000002,2.3245968,10.0,2.6
17.583333333333332,10.1462006,11.000202,13.333999999999998,7.3743978,2.9134016000000003,1.6238016000000002,2.3245968,10.0,2.6
17.666666666666668,10.1462006,11.000202,13.230799999999999,7.433796200000001,2.8341958,1.6238016000000002,2.3245968,10.0,2.6
17.75,10.1760008,10.909195999999998,13.398203999999998,7.037996199999999,2.8554044000000003,1.6526013999999996,2.3492018,9.8,3.2
17.833333333333332,10.268795999999998,10.792200000000001,13.198404,7.047596199999999,2.8393996,1.6526013999999996,2.3492018,9.8,3.2
17.916666666666668,10.268795999999998,10.792200000000001,12.642602,7.0496002,2.8835972,1.6526013999999996,2.3492018,9.8,3.2
18.0,10.2889975,10.745495,13.691747499999998,7.05174875,2.79324975,1.73174875,2.21875625,10.25,1.75
18.083333333333332,9.909249749999999,10.934750000000001,13.681244999999999,7.24749775,2.8874977499999996,1.73174875,2.21875625,10.25,1.75
18.166666666666668,9.909249749999999,10.934750000000001,13.407995,6.948753250000001,2.83225125,1.73174875,2.21875625,10.25,1.75
18.25,10.0755994,10.752206000000001,12.9398,7.0917981999999995,2.7907972,1.6861989999999998,2.3056024,10.0,2.8
18.333333333333332,9.9111982,10.3091998,13.958802,7.1270026,2.8433986000000004,1.6861989999999998,2.3056024,10.0,2.8
18.416666666666668,9.9111982,10.3091998,13.136804000000001,7.2753986,2.8821958000000003,1.6861989999999998,2.3056024,10.0,2.8
18.5,9.9111982,10.3091998,13.230006,7.0767978,2.9334004000000005,1.7297985999999999,2.4090021999999998,10.0,2.8
18.583333333333332,10.252002000000001,10.7388034,12.934605999999999,7.1271992,2.9321998000000002,1.7297985999999999,2.4090021999999998,10.0,2.8
18.666666666666668,10.252002000000001,10.7388034,12.937605999999999,7.2438002,2.8829991999999995,1.7297985999999999,2.4090021999999998,10.0,2.8
18.75,10.077398200000001,10.658199399999999,13.234604,7.028194999999999,2.9672034,1.7239968,2.2845943999999996,10.2,2.8
18.833333333333332,10.2129978,10.0571988,12.817599999999999,6.5724029999999996,2.9985964000000003,1.7239968,2.2845943999999996,10.2,2.8
18.916666666666668,10.2129978,10.0571988,13.288204000000002,7.0702016,2.9048057999999997,1.7239968,2.2845943999999996,10.2,2.8
19.0,10.198247250000001,10.197995749999999,13.4374925,6.56699575,3.1307445,1.80399975,2.504,10.0,3.0
19.083333333333332,9.857244,10.52624975,12.25975,6.778504999999999,3.089752,1.80399975,2.504,10.0,3.0
19.166666666666668,9.857244,10.52624975,12.992997500000001,6.33000275,3.2754920000000003,1.80399975,2.504,10.0,3.0
19.25,9.7844965,10.26700225,13.1572525,6.5034980000000004,3.197752,1.97925225,2.464,10.0,2.5
19.333333333333332,10.123496750000001,10.7782575,13.314249999999998,6.891994250000001,3.1619972499999998,1.97925225,2.464,10.0,2.5
19.416666666666668,10.123496750000001,10.7782575,13.813244999999998,6.831498,3.1557492500000004,1.97925225,2.464,10.0,2.5
19.5,10.042198199999998,10.677,12.612199999999998,6.457997000000001,3.0977964,1.9062002,2.515798,10.2,3.0
19.583333333333332,9.9404044,10.1413998,13.7708,6.815799199999999,3.0990014,1.9062002,2.515798,10.2,3.0
19.666666666666668,9.9404044,10.1413998,13.027398,7.0553973999999995,3.3901968000000005,1.9062002,2.515798,10.2,3.0
19.75,10.038835666666666,10.154663166666667,13.146499999999998,7.000502,3.376338666666667,1.9610043333333333,2.4640001666666667,9.833333333333334,3.3333333333333335
19.833333333333332,9.993833833333333,10.516836666666668,12.90933333333333,7.025666333333333,3.276332833333333,1.9610043333333333,2.4640001666666667,9.833333333333334,3.3333333333333335
19.916666666666668,9.993833833333333,10.516836666666668,13.253665,6.853162166666667,3.258004833333333,1.9610043333333333,2.4640001666666667,9.833333333333334,3.3333333333333335
20.0,9.9300014,10.449202,12.865796,6.9328024,3.3847966,1.8809972,2.6180019999999997,10.2,2.6
20.083333333333332,10.1146016,10.6124,13.154198,6.744203399999999,3.215,1.8809972,2.6180019999999997,10.2,2.6
20.166666666666668,10.1146016,10.6124,13.752196000000001,7.0579994,3.2744038000000004,1.8809972,2.6180019999999997,10.2,2.6
20.25,10.311198,10.6988,13.261197999999998,7.183004800000001,3.2226008,2.0281974000000003,2.5060018,10.0,2.4
20.333333333333332,10.268598800000001,10.501395999999998,13.702395999999998,6.966199200000001,3.1517989999999996,2.0281974000000003,2.5060018,10.0,2.4
20.416666666666668,10.268598800000001,10.501395999999998,13.201999999999998,7.191596200000001,3.2919966,2.0281974000000003,2.5060018,10.0,2.4
20.5,10.268598800000001,10.501395999999998,13.317000000000002,7.000600400000001,3.2032,1.9840001999999999,2.5796018,10.0,2.4
20.583333333333332,10.169796,10.688798,13.677402,6.7571992,3.2754032000000004,1.9840001999999999,2.5796018,10.0,2.4
20.666666666666668,10.169796,10.688798,13.872195999999999,7.2133982,3.2521996,1.9840001999999999,2.5796018,10.0,2.4
20.75,10.163995,10.789995,13.246747499999998,6.466254,3.2002512500000004,1.9712524999999999,2.58199725,9.75,2.75
20.833333333333332,10.3819975,10.846005000000002,13.330005,7.174750250000001,3.28500425,1.9712524999999999,2.58199725,9.75,2.75
20.916666666666668,10.3819975,10.846005000000002,13.1415025,6.635748749999999,3.3210042500000005,1.9712524999999999,2.58199725,9.75,2.75
21.0,10.2629965,10.790005,13.55275,6.880747500000001,3.34324675,1.9387447500000001,2.4747445,9.75,3.5
21.083333333333332,10.210247500000001,10.7485,14.3497475,7.1052555,3.25849375,1.9387447500000001,2.4747445,9.75,3.5
21.166666666666668,10.210247500000001,10.7485,14.6360025,7.081752,3.2279999999999998,1.9387447500000001,2.4747445,9.75,3.5
21.25,10.304747500000001,10.5860025,13.367750000000001,6.729997,3.24150075,1.904251,2.5182537500000004,9.75,3.25
21.333333333333332,10.351994999999999,10.916495,13.7962525,7.392998499999999,3.2035037500000003,1.904251,2.5182537500000004,9.75,3.25
21.416666666666668,10.351994999999999,10.916495,14.049745,6.864759,3.2095010000000004,1.904251,2.5182537500000004,9.75,3.25
21.5,10.250496666666665,10.817833333333335,13.968001666666666,7.283499666666667,3.1753305,1.803997833333333,2.335171,10.0,2.8333333333333335
21.583333333333332,10.138163166666667,11.148333333333333,13.796665000000003,7.0098294999999995,3.1849968333333334,1.803997833333333,2.335171,10.0,2.8333333333333335
21.666666666666668,10.138163166666667,11.148333333333333,13.67749333333333,7.543003333333332,3.1119964999999996,1.803997833333333,2.335171,10.0,2.8333333333333335
21.75,10.262663833333333,11.090663333333334,13.349665,7.198668666666667,3.265829833333333,1.8220029999999998,2.227834666666667,10.0,3.0
21.833333333333332,10.538829999999999,10.953335000000001,13.566836666666667,7.329997166666666,3.2544975,1.8220029999999998,2.227834666666667,10.0,3.0
21.916666666666668,10.538829999999999,10.953335000000001,13.835168333333334,7.126501333333334,3.0893313333333334,1.8220029999999998,2.227834666666667,10.0,3.0
22.0,10.464398,11.099806,14.044999999999998,7.088999800000001,3.2164015999999997,1.8311988,2.4482008,10.0,2.8
22.083333333333332,10.507002,10.9618,14.130600000000001,7.4607978,3.1852006,1.8311988,2.4482008,10.0,2.8
22.166666666666668,10.507002,10.9618,13.872392,7.2999988,3.1524017999999994,1.8311988,2.4482008,10.0,2.8
22.25,10.516,10.974250000000001,14.1702475,7.02649925,3.13175475,1.80850225,2.2837490000000003,10.25,2.25
22.333333333333332,10.484997499999999,11.0775,13.869245,6.71150375,3.067498,1.80850225,2.2837490000000003,10.25,2.25
22.416666666666668,10.484997499999999,11.0775,14.4434975,7.091749,3.08074775,1.80850225,2.2837490000000003,10.25,2.25
22.5,10.410597999999998,11.007597999999998,13.921797999999999,6.833999400000001,3.155401,1.7316018,2.2915970000000003,10.2,2.8
22.583333333333332,10.249398199999998,11.005604000000002,14.05,7.0291996,3.0793998,1.7316018,2.2915970000000003,10.2,2.8
22.666666666666668,10.249398199999998,11.005604000000002,13.969593999999997,7.181398,3.0409952000000002,1.7316018,2.2915970000000003,10.2,2.8
22.75,10.3529975,11.1297525,14.8154925,7.05599425,2.91774625,1.7144995,2.3862479999999997,10.25,2.25
22.833333333333332,10.09549825,11.1912475,14.0367525,7.4892495,2.8964965,1.7144995,2.3862479999999997,10.25,2.25
22.916666666666668,10.09549825,11.1912475,13.784244999999999,7.1742425,2.87799725,1.7144995,2.3862479999999997,10.25,2.25
23.0,9.9707986,11.0226,14.343004000000002,7.2633972,2.7460017999999997,1.5950014,2.1307984,10.2,2.8
23.083333333333332,10.2281998,10.9556048,13.639602000000002,7.3509978,2.8208024000000003,1.5950014,2.1307984,10.2,2.8
23.166666666666668,10.2281998,10.9556048,13.6534,7.647401800000002,2.7291982000000004,1.5950014,2.1307984,10.2,2.8
23.25,10.180831333333334,10.965002333333333,13.683996666666665,7.111669166666666,2.7989995000000003,1.5593343333333332,2.0781665,10.0,3.1666666666666665
23.333333333333332,9.943163666666667,10.924831666666668,13.569836666666665,7.312996666666667,2.737164166666666,1.5593343333333332,2.0781665,10.0,3.1666666666666665
23.416666666666668,9.943163666666667,10.924831666666668,13.227168333333333,7.133337,2.667332333333333,1.5593343333333332,2.0781665,10.0,3.1666666666666665
23.5,9.943163666666667,10.924831666666668,13.872338333333333,6.8086658333333325,2.6294968333333335,1.4700028333333333,1.9920038333333334,10.0,3.1666666666666665
23.583333333333332,9.912837333333336,10.854333333333335,13.44716333333333,7.205333333333333,2.676161666666666,1.4700028333333333,1.9920038333333334,10.0,3.1666666666666665
23.666666666666668,9.912837333333336,10.854333333333335,13.668001666666667,7.1213315,2.5360001666666667,1.4700028333333333,1.9920038333333334,10.0,3.1666666666666665
23.75,9.912837333333336,10.854333333333335,13.467831666666669,7.220834833333332,2.6001675,1.4043326666666667,1.9924985,10.0,3.1666666666666665
23.833333333333332,9.888828666666667,10.724665,13.681001666666665,7.399334333333335,2.5553363333333334,1.4043326666666667,1.9924985,10.0,3.1666666666666665
23.916666666666668,9.888828666666667,10.724665,12.706828333333334,7.2308319999999995,2.5039961666666666,1.4043326666666667,1.9924985,10.0,3.1666666666666665
